{
  "development": {
    "username": "wjqzrjlu",
    "password": "l6aUqnqOjG--Jvx5vjBfV6nuXyrLLB7Q",
    "database": "wjqzrjlu",
    "host": "topsy.db.elephantsql.com",
    "dialect": "postgres"
  },
  "test": {
    "username": "root",
    "password": null,
    "database": "database_test",
    "host": "127.0.0.1",
    "dialect": "mysql"
  },
  "production": {
    "username": "root",
    "password": null,
    "database": "database_production",
    "host": "127.0.0.1",
    "dialect": "mysql"
  }
}
